[
{
  "pk": 1, 
  "model": "observation.acidity", 
  "fields": {
    "code": 0, 
    "description": "Sauer"
  }
},
{
  "pk": 2, 
  "model": "observation.acidity", 
  "fields": {
    "code": 1, 
    "description": "Basisch"
  }
}
]
