[
{
  "pk": 1, 
  "model": "observation.crownform", 
  "fields": {
    "explanation": "Volumen und Ausformung \u00fcberdurchschnittlich gleichm\u00e4ssig rund und dicht (freistehende Einzelb\u00e4ume), unbeeinflusst von anderen Kronen.", 
    "code": 1, 
    "description": "rund"
  }
},
{
  "pk": 2, 
  "model": "observation.crownform", 
  "fields": {
    "explanation": "Volumen und Ausformung durchschnittlich", 
    "code": 2, 
    "description": "leicht einseitig"
  }
},
{
  "pk": 3, 
  "model": "observation.crownform", 
  "fields": {
    "explanation": "Volumen und Ausformung unterdurchschnittlich, Krone sch\u00fctter und unregelm\u00e4ssig", 
    "code": 3, 
    "description": "stark einseitig"
  }
}
]
