[
{
  "fields": {
    "code": 1,
    "description": "Bl\u00f6sse/Jungwuchs/Dickung (BHD<12cm)"
  },
  "model": "observation.develstage",
  "pk": 1
},
{
  "fields": {
    "code": 3,
    "description": "schwaches Stangenholz (BHD 12-20cm)"
  },
  "model": "observation.develstage",
  "pk": 2
},
{
  "fields": {
    "code": 4,
    "description": "starkes Stangenholz (BHD 20-30cm)"
  },
  "model": "observation.develstage",
  "pk": 3
},
{
  "fields": {
    "code": 5,
    "description": "schwaches Baumholz (BHD 30-40cm)"
  },
  "model": "observation.develstage",
  "pk": 4
},
{
  "fields": {
    "code": 6,
    "description": "mittleres Baumholz (BHD 40-50cm)"
  },
  "model": "observation.develstage",
  "pk": 5
},
{
  "fields": {
    "code": 7,
    "description": "Starkholz (BHD>50cm)"
  },
  "model": "observation.develstage",
  "pk": 6
},
{
  "fields": {
    "code": 8,
    "description": "stufige Best\u00e4nde"
  },
  "model": "observation.develstage",
  "pk": 7
},
{
  "fields": {
    "code": 9,
    "description": "dauernd unbestockt (Grube, Forsth\u00fctte, Holzlagerplatz etc.)"
  },
  "model": "observation.develstage",
  "pk": 8
}
]
