[
{
  "fields": {
    "inc_class": 2,
    "code": "1",
    "description": "Typischer Waldhainsimsen - Buchenwald",
    "ecol_grp": "A"
  },
  "model": "observation.phytosoc",
  "pk": 2
},
{
  "fields": {
    "inc_class": 5,
    "code": "1t",
    "description": "Hainsimsen - Buchenmischwald",
    "ecol_grp": "B"
  },
  "model": "observation.phytosoc",
  "pk": 3
},
{
  "fields": {
    "inc_class": 2,
    "code": "6",
    "description": "Waldmeister - Buchenwald mit Hainsimse",
    "ecol_grp": "A"
  },
  "model": "observation.phytosoc",
  "pk": 4
},
{
  "fields": {
    "inc_class": 3,
    "code": "6t",
    "description": "Waldmeister - Buchenmischwald mit Hainsimse",
    "ecol_grp": "B"
  },
  "model": "observation.phytosoc",
  "pk": 5
},
{
  "fields": {
    "inc_class": 2,
    "code": "7a",
    "description": "Typischer Waldmeister - Buchenwald",
    "ecol_grp": "A"
  },
  "model": "observation.phytosoc",
  "pk": 6
},
{
  "fields": {
    "inc_class": 1,
    "code": "7a'",
    "description": "Typischer Waldmeister - Buchenwald, Steilhangausbildung",
    "ecol_grp": "A"
  },
  "model": "observation.phytosoc",
  "pk": 7
},
{
  "fields": {
    "inc_class": 1,
    "code": "7as",
    "description": "Typischer Waldmeister - Buchenwald, Ausbildung mit Waldziest",
    "ecol_grp": "A"
  },
  "model": "observation.phytosoc",
  "pk": 8
},
{
  "fields": {
    "inc_class": 2,
    "code": "7b",
    "description": "Typischer Waldmeister - Buchenwald, Ausbildung mit Seegras",
    "ecol_grp": "A"
  },
  "model": "observation.phytosoc",
  "pk": 9
},
{
  "fields": {
    "inc_class": 1,
    "code": "7bp",
    "description": "Typischer Waldmeister - Buchenwald, Ausbildung mit Traubenkirsche",
    "ecol_grp": "A"
  },
  "model": "observation.phytosoc",
  "pk": 10
},
{
  "fields": {
    "inc_class": 2,
    "code": "7e",
    "description": "Waldmeister - Buchenwald mit Hornstrauch",
    "ecol_grp": "A"
  },
  "model": "observation.phytosoc",
  "pk": 11
},
{
  "fields": {
    "inc_class": 1,
    "code": "7eR",
    "description": "Waldmeister - Buchenwald mit Hornstrauch, Ausbildung mit Gold - Hahnenfuss",
    "ecol_grp": "A"
  },
  "model": "observation.phytosoc",
  "pk": 12
},
{
  "fields": {
    "inc_class": 2,
    "code": "7f",
    "description": "Waldmeister - Buchenwald mit Lungenkraut",
    "ecol_grp": "A"
  },
  "model": "observation.phytosoc",
  "pk": 13
},
{
  "fields": {
    "inc_class": 1,
    "code": "7fR",
    "description": "Waldmeister - Buchenwald mit Lungenkraut, Ausbildung mit Gold - Hahnenfuss",
    "ecol_grp": "A"
  },
  "model": "observation.phytosoc",
  "pk": 14
},
{
  "fields": {
    "inc_class": 1,
    "code": "7g",
    "description": "Waldmeister - Buchenwald mit Lungenkraut, Ausbildung mit Waldziest",
    "ecol_grp": "A"
  },
  "model": "observation.phytosoc",
  "pk": 15
},
{
  "fields": {
    "inc_class": 3,
    "code": "7j",
    "description": "Waldmeister - Buchenwald mit Lungenkraut, Ausbildung auf Jurahochflächen",
    "ecol_grp": "A"
  },
  "model": "observation.phytosoc",
  "pk": 16
},
{
  "fields": {
    "inc_class": 2,
    "code": "7ta",
    "description": "Waldmeister - Buchenmischwald",
    "ecol_grp": "B"
  },
  "model": "observation.phytosoc",
  "pk": 17
},
{
  "fields": {
    "inc_class": 2,
    "code": "7td",
    "description": "Waldmeister - Buchenmischwald, artenarme Ausbildung",
    "ecol_grp": "B"
  },
  "model": "observation.phytosoc",
  "pk": 18
},
{
  "fields": {
    "inc_class": 2,
    "code": "7te",
    "description": "Waldmeister - Buchenmischwald mit Hornstrauch",
    "ecol_grp": "B"
  },
  "model": "observation.phytosoc",
  "pk": 19
},
{
  "fields": {
    "inc_class": 2,
    "code": "7teR",
    "description": "Waldmeister - Buchenmischwald mit Hornstrauch, Ausbildung mit Gold - Hanenfuss",
    "ecol_grp": "B"
  },
  "model": "observation.phytosoc",
  "pk": 20
},
{
  "fields": {
    "inc_class": 1,
    "code": "7tf",
    "description": "Waldmeister - Buchenmischwald mit Lungenkraut",
    "ecol_grp": "B"
  },
  "model": "observation.phytosoc",
  "pk": 21
},
{
  "fields": {
    "inc_class": 1,
    "code": "7tfR",
    "description": "Waldmeister - Buchenmischwald mit Lungenkraut, Ausbildung mit Gold - Hahnenfuss",
    "ecol_grp": "B"
  },
  "model": "observation.phytosoc",
  "pk": 22
},
{
  "fields": {
    "inc_class": 1,
    "code": "7tg",
    "description": "Waldmeister - Buchenmischwald mit Waldziest",
    "ecol_grp": "B"
  },
  "model": "observation.phytosoc",
  "pk": 23
},
{
  "fields": {
    "inc_class": 1,
    "code": "7ta'",
    "description": "Waldmeister - Buchenmischwald, Steilhangausbildung",
    "ecol_grp": "B"
  },
  "model": "observation.phytosoc",
  "pk": 24
},
{
  "fields": {
    "inc_class": 2,
    "code": "8a",
    "description": "Typischer Waldhirsen - Buchenwald",
    "ecol_grp": "D"
  },
  "model": "observation.phytosoc",
  "pk": 25
},
{
  "fields": {
    "inc_class": 1,
    "code": "8as",
    "description": "Typischer Waldhirsen - Buchenwald, Ausbildung mit Waldziest",
    "ecol_grp": "D"
  },
  "model": "observation.phytosoc",
  "pk": 26
},
{
  "fields": {
    "inc_class": 1,
    "code": "8d",
    "description": "Waldhirsen - Buchenwald mit Hainssimse",
    "ecol_grp": "D"
  },
  "model": "observation.phytosoc",
  "pk": 27
},
{
  "fields": {
    "inc_class": 1,
    "code": "8e",
    "description": "Waldhirsen - Buchenwald mit Hornstrauch",
    "ecol_grp": "D"
  },
  "model": "observation.phytosoc",
  "pk": 28
},
{
  "fields": {
    "inc_class": 2,
    "code": "8f",
    "description": "Waldhirsen - Buchenwald mit Lungenkraut",
    "ecol_grp": "D"
  },
  "model": "observation.phytosoc",
  "pk": 29
},
{
  "fields": {
    "inc_class": 1,
    "code": "8g",
    "description": "Waldhirsen - Buchenwald mit Lungenkraut, Ausbildung mit Waldziest",
    "ecol_grp": "D"
  },
  "model": "observation.phytosoc",
  "pk": 30
},
{
  "fields": {
    "inc_class": 2,
    "code": "8j",
    "description": "Waldhirsen - Buchenwald mit Lungenkraut, Ausbildung auf Jurahochflächen",
    "ecol_grp": "D"
  },
  "model": "observation.phytosoc",
  "pk": 31
},
{
  "fields": {
    "inc_class": 2,
    "code": "9a",
    "description": "Typischer Lungenkraut - Buchenwald",
    "ecol_grp": "A"
  },
  "model": "observation.phytosoc",
  "pk": 32
},
{
  "fields": {
    "inc_class": 1,
    "code": "9b",
    "description": "Typischer Lungenkraut - Buchenwald mit Hexenkraut",
    "ecol_grp": "A"
  },
  "model": "observation.phytosoc",
  "pk": 33
},
{
  "fields": {
    "inc_class": 2,
    "code": "9g",
    "description": "Typischer Lungenkraut - Buchenwald mit Gold-Hahnenfuss",
    "ecol_grp": "A"
  },
  "model": "observation.phytosoc",
  "pk": 34
},
{
  "fields": {
    "inc_class": 2,
    "code": "9t",
    "description": "Lungenkraut - Buchenwald",
    "ecol_grp": "B"
  },
  "model": "observation.phytosoc",
  "pk": 35
},
{
  "fields": {
    "inc_class": 4,
    "code": "9w",
    "description": "Lungenkraut - Buchenwald, Ausbildung mit \"kriechendem\" Liguster",
    "ecol_grp": "A"
  },
  "model": "observation.phytosoc",
  "pk": 36
},
{
  "fields": {
    "inc_class": 4,
    "code": "10a",
    "description": "Lungenkraut - Buchenwald mit Immenblatt",
    "ecol_grp": "C"
  },
  "model": "observation.phytosoc",
  "pk": 37
},
{
  "fields": {
    "inc_class": 4,
    "code": "10w",
    "description": "Lungenkraut - Buchenwald mit Immenblatt, Ausbildung mit \"kriechendem\" Liguster",
    "ecol_grp": "C"
  },
  "model": "observation.phytosoc",
  "pk": 38
},
{
  "fields": {
    "inc_class": 1,
    "code": "11",
    "description": "Aronstab - Buchenwald",
    "ecol_grp": "A"
  },
  "model": "observation.phytosoc",
  "pk": 39
},
{
  "fields": {
    "inc_class": 4,
    "code": "12*",
    "description": "Zahnwurz - Buchenwald mit weisser Segge",
    "ecol_grp": "C"
  },
  "model": "observation.phytosoc",
  "pk": 40
},
{
  "fields": {
    "inc_class": 2,
    "code": "12a",
    "description": "Typischer Zahnwurz - Buchenwald",
    "ecol_grp": "D"
  },
  "model": "observation.phytosoc",
  "pk": 41
},
{
  "fields": {
    "inc_class": 1,
    "code": "12b",
    "description": "Zahnwurz - Buchenwald mit Hexenkraut",
    "ecol_grp": "D"
  },
  "model": "observation.phytosoc",
  "pk": 42
},
{
  "fields": {
    "inc_class": 1,
    "code": "12g",
    "description": "Zahnwurz - Buchenwald mit Bärlauch",
    "ecol_grp": "D"
  },
  "model": "observation.phytosoc",
  "pk": 43
},
{
  "fields": {
    "inc_class": 3,
    "code": "12t",
    "description": "Typischer Zahnwurz - Buchenwald, artenarme Ausbildung",
    "ecol_grp": "D"
  },
  "model": "observation.phytosoc",
  "pk": 44
},
{
  "fields": {
    "inc_class": 4,
    "code": "12w",
    "description": "Zahnwurz - Buchenwald, Ausbildung mit \"kriechendem\" Liguster",
    "ecol_grp": "C"
  },
  "model": "observation.phytosoc",
  "pk": 45
},
{
  "fields": {
    "inc_class": 3,
    "code": "13a",
    "description": "Linden - Zahnwurz - Buchenwald",
    "ecol_grp": "F"
  },
  "model": "observation.phytosoc",
  "pk": 46
},
{
  "fields": {
    "inc_class": 5,
    "code": "13e",
    "description": "Linden - Zahnwurz - Buchenwald, Ausbildung mit Immenblatt",
    "ecol_grp": "F"
  },
  "model": "observation.phytosoc",
  "pk": 47
},
{
  "fields": {
    "inc_class": 5,
    "code": "13eh",
    "description": "Alpendost - Buchenwald mit Blaugras",
    "ecol_grp": "F"
  },
  "model": "observation.phytosoc",
  "pk": 48
},
{
  "fields": {
    "inc_class": 3,
    "code": "13g",
    "description": "Linden - Zahnwurz - Buchenwald, Ausbildung mit Bärlauch",
    "ecol_grp": "F"
  },
  "model": "observation.phytosoc",
  "pk": 49
},
{
  "fields": {
    "inc_class": 3,
    "code": "13h",
    "description": "Alpendost - Buchenwald",
    "ecol_grp": "F"
  },
  "model": "observation.phytosoc",
  "pk": 50
},
{
  "fields": {
    "inc_class": 3,
    "code": "13t",
    "description": "Linden - Zahnwurz - Buchenwald, artenarme Ausbildung",
    "ecol_grp": "F"
  },
  "model": "observation.phytosoc",
  "pk": 51
},
{
  "fields": {
    "inc_class": 4,
    "code": "14a",
    "description": "Typischer Weissseggen - Buchenwald",
    "ecol_grp": "C"
  },
  "model": "observation.phytosoc",
  "pk": 52
},
{
  "fields": {
    "inc_class": 5,
    "code": "14e",
    "description": "Weissseggen - Buchenwald, Ausbildung mit Blaugras",
    "ecol_grp": "C"
  },
  "model": "observation.phytosoc",
  "pk": 53
},
{
  "fields": {
    "inc_class": 4,
    "code": "14w",
    "description": "Weissseggen - Buchenwald, Ausbildung mit \"kriechendem\" Liguster",
    "ecol_grp": "C"
  },
  "model": "observation.phytosoc",
  "pk": 54
},
{
  "fields": {
    "inc_class": 5,
    "code": "15",
    "description": "Bergseggen - Buchenwald",
    "ecol_grp": "C"
  },
  "model": "observation.phytosoc",
  "pk": 55
},
{
  "fields": {
    "inc_class": 5,
    "code": "16a",
    "description": "Blaugras - Buchenwald",
    "ecol_grp": "C"
  },
  "model": "observation.phytosoc",
  "pk": 56
},
{
  "fields": {
    "inc_class": 5,
    "code": "16l",
    "description": "Blaugras - Buchenwald mit Eichenfarm",
    "ecol_grp": "C"
  },
  "model": "observation.phytosoc",
  "pk": 57
},
{
  "fields": {
    "inc_class": 4,
    "code": "17",
    "description": "Eiben - Buchenwald",
    "ecol_grp": "C"
  },
  "model": "observation.phytosoc",
  "pk": 58
},
{
  "fields": {
    "inc_class": 4,
    "code": "18*",
    "description": "Tannen - Buchenwald mit Weisser Segge",
    "ecol_grp": "C"
  },
  "model": "observation.phytosoc",
  "pk": 59
},
{
  "fields": {
    "inc_class": 2,
    "code": "18a",
    "description": "Typischer Tannen - Buchenwald",
    "ecol_grp": "E"
  },
  "model": "observation.phytosoc",
  "pk": 60
},
{
  "fields": {
    "inc_class": 3,
    "code": "19",
    "description": "Tannen - Buchenwald mit Waldsimse",
    "ecol_grp": "E"
  },
  "model": "observation.phytosoc",
  "pk": 61
},
{
  "fields": {
    "inc_class": 1,
    "code": "20",
    "description": "Farnreicher Tannen - Buchenwald",
    "ecol_grp": "E"
  },
  "model": "observation.phytosoc",
  "pk": 62
},
{
  "fields": {
    "inc_class": 3,
    "code": "22",
    "description": "Hirschzungen - Ahornwald",
    "ecol_grp": "F"
  },
  "model": "observation.phytosoc",
  "pk": 63
},
{
  "fields": {
    "inc_class": 4,
    "code": "22*",
    "description": "Lerchensporn - Ahornwald",
    "ecol_grp": "F"
  },
  "model": "observation.phytosoc",
  "pk": 64
},
{
  "fields": {
    "inc_class": 5,
    "code": "25*",
    "description": "Ahorn - Lindenwald",
    "ecol_grp": "F"
  },
  "model": "observation.phytosoc",
  "pk": 65
},
{
  "fields": {
    "inc_class": 1,
    "code": "26a",
    "description": "Typischer Ahorn - Eschenwald",
    "ecol_grp": "G"
  },
  "model": "observation.phytosoc",
  "pk": 66
},
{
  "fields": {
    "inc_class": 1,
    "code": "26f",
    "description": "Ahorn - Eschenwald mit Lungenkraut",
    "ecol_grp": "G"
  },
  "model": "observation.phytosoc",
  "pk": 67
},
{
  "fields": {
    "inc_class": 1,
    "code": "26g",
    "description": "Ahorn - Eschenwald mit Bärlauch",
    "ecol_grp": "G"
  },
  "model": "observation.phytosoc",
  "pk": 68
},
{
  "fields": {
    "inc_class": 1,
    "code": "26h",
    "description": "Ahorn - Eschenwald mit Alpendost",
    "ecol_grp": "G"
  },
  "model": "observation.phytosoc",
  "pk": 69
},
{
  "fields": {
    "inc_class": 1,
    "code": "27a",
    "description": "Typischer Seggen - Bacheschenwald",
    "ecol_grp": "G"
  },
  "model": "observation.phytosoc",
  "pk": 70
},
{
  "fields": {
    "inc_class": 1,
    "code": "27f",
    "description": "Seggen - Bacheschenwald mit Riesenschachtelhalm",
    "ecol_grp": "G"
  },
  "model": "observation.phytosoc",
  "pk": 71
},
{
  "fields": {
    "inc_class": 1,
    "code": "27g",
    "description": "Seggen - Bacheschenwald mit Bärlauch",
    "ecol_grp": "G"
  },
  "model": "observation.phytosoc",
  "pk": 72
},
{
  "fields": {
    "inc_class": 1,
    "code": "27h",
    "description": "Seggen - Bacheschenwald mit Aplendost",
    "ecol_grp": "G"
  },
  "model": "observation.phytosoc",
  "pk": 73
},
{
  "fields": {
    "inc_class": 1,
    "code": "29",
    "description": "Zweiblatt - Eschenmischwald",
    "ecol_grp": "G"
  },
  "model": "observation.phytosoc",
  "pk": 74
},
{
  "fields": {
    "inc_class": 1,
    "code": "29t",
    "description": "Laubmischwald am Rheinbord",
    "ecol_grp": "G"
  },
  "model": "observation.phytosoc",
  "pk": 75
},
{
  "fields": {
    "inc_class": 2,
    "code": "30",
    "description": "Traubenkirschen - Eschenwald",
    "ecol_grp": "G"
  },
  "model": "observation.phytosoc",
  "pk": 76
},
{
  "fields": {
    "inc_class": 3,
    "code": "35b",
    "description": "Lerchensporn-Hainbuchenmischwald",
    "ecol_grp": "H"
  },
  "model": "observation.phytosoc",
  "pk": 77
},
{
  "fields": {
    "inc_class": 3,
    "code": "35bh",
    "description": "Lerchensporn-Hainbuchenmischwald, Ausbildung mit Efeu",
    "ecol_grp": "H"
  },
  "model": "observation.phytosoc",
  "pk": 78
},
{
  "fields": {
    "inc_class": 3,
    "code": "35f",
    "description": "Haselwurz - Hainbuchenmischwald, Ausbildung mit Aronstab",
    "ecol_grp": "H"
  },
  "model": "observation.phytosoc",
  "pk": 79
},
{
  "fields": {
    "inc_class": 3,
    "code": "35g",
    "description": "Haselwurz - Hainbuchenmischwald, Ausbildung mit Bärlauch",
    "ecol_grp": "H"
  },
  "model": "observation.phytosoc",
  "pk": 80
},
{
  "fields": {
    "inc_class": 5,
    "code": "38",
    "description": "Flaumeichenwald",
    "ecol_grp": "H"
  },
  "model": "observation.phytosoc",
  "pk": 81
},
{
  "fields": {
    "inc_class": 5,
    "code": "39",
    "description": "Kronwicken - Eichenmischwald",
    "ecol_grp": "H"
  },
  "model": "observation.phytosoc",
  "pk": 82
},
{
  "fields": {
    "inc_class": 3,
    "code": "44",
    "description": "Seggen - Schwarzerlenbruchwald",
    "ecol_grp": "G"
  },
  "model": "observation.phytosoc",
  "pk": 83
},
{
  "fields": {
    "inc_class": 3,
    "code": "48",
    "description": "Farn - Tannenmischwald",
    "ecol_grp": "F"
  },
  "model": "observation.phytosoc",
  "pk": 84
},
{
  "fields": {
    "inc_class": 5,
    "code": "61",
    "description": "Pfeifengras - Föhrenwald",
    "ecol_grp": "I"
  },
  "model": "observation.phytosoc",
  "pk": 85
},
{
  "fields": {
    "inc_class": 5,
    "code": "62",
    "description": "Orchideen - Föhrenwald",
    "ecol_grp": "I"
  },
  "model": "observation.phytosoc",
  "pk": 86
},
{
  "fields": {
    "inc_class": 5,
    "code": "65",
    "description": "Schneeheiden - Föhrenwald",
    "ecol_grp": "I"
  },
  "model": "observation.phytosoc",
  "pk": 87
},
{
  "fields": {
    "inc_class": 2,
    "code": "98",
    "description": "Wässerstellen in der langen Erlen",
    "ecol_grp": "0"
  },
  "model": "observation.phytosoc",
  "pk": 88
},
{
  "fields": {
    "inc_class": 3,
    "code": "99",
    "description": "Wald auf Aufschüttung",
    "ecol_grp": "0"
  },
  "model": "observation.phytosoc",
  "pk": 89
},
{
  "fields": {
    "inc_class": 5,
    "code": "100",
    "description": "Kein Wald",
    "ecol_grp": "0"
  },
  "model": "observation.phytosoc",
  "pk": 90
}
]
