[
{
  "pk": 1, 
  "model": "observation.standstructure", 
  "fields": {
    "code": 1, 
    "description": "einschichtig"
  }
},
{
  "pk": 2, 
  "model": "observation.standstructure", 
  "fields": {
    "code": 2, 
    "description": "mehrschichtig"
  }
},
{
  "pk": 3, 
  "model": "observation.standstructure", 
  "fields": {
    "code": 3, 
    "description": "stufig"
  }
},
{
  "pk": 4, 
  "model": "observation.standstructure", 
  "fields": {
    "code": 4, 
    "description": "rottenstruktur"
  }
}
]
